{
  "hosting": [{
    "site": "innview-v2-myshow",
    "public": "dist",
    "rewrites": [
      {
        "source": "/innview-show/us-central1/updateProductionPlan",
        "function": "updateProductionPlan"
      }
    ]
  },
  {
    "site": "innview-v2",
    "public": "dist",
    "rewrites": [
      {
        "source": "/innview-firebase/us-central1/updateProductionPlan",
        "function": "updateProductionPlan"
      }
    ]
  }]
}

